<!-- Created with Inkscape (http://www.inkscape.org/) --><svg xmlns:inkscape="http://www.inkscape.org/namespaces/inkscape" xmlns:sodipodi="http://sodipodi.sourceforge.net/DTD/sodipodi-0.dtd" xmlns="http://www.w3.org/2000/svg" xmlns:svg="http://www.w3.org/2000/svg" width="95.693863mm" height="113.47732mm" viewBox="0 0 95.693863 113.47732" version="1.1" id="svg5" inkscape:version="1.2-dev (bf4f53e38c, 2021-05-21)" sodipodi:docname="paths_open_closed.svg">
  <sodipodi:namedview id="namedview7" pagecolor="#ffffff" bordercolor="#666666" borderopacity="1.0" inkscape:pageshadow="2" inkscape:pageopacity="0.0" inkscape:pagecheckerboard="0" inkscape:document-units="mm" showgrid="false" inkscape:zoom="1.0998546" inkscape:cx="416.41868" inkscape:cy="384.14169" inkscape:window-width="2488" inkscape:window-height="1376" inkscape:window-x="1992" inkscape:window-y="27" inkscape:window-maximized="1" inkscape:current-layer="layer1"/>
  <defs id="defs2"/>
  <g inkscape:label="Layer 1" inkscape:groupmode="layer" id="layer1" transform="translate(-13.488084,-21.263619)">
    <path id="rect723" style="fill:none;stroke:#000000;stroke-width:0.264583" d="M 16.9975 28.2626 H 27.8234 H 38.6493 H 49.4752 V 38.1066 V 47.9506 V 57.7946 H 38.6493 H 27.8234 H 16.9975 L 16.9975 47.9506 L 16.9975 38.1066 Z"/>
    <path id="rect723-5" style="fill:#0000ff;stroke:#00ffff;stroke-width:1.33282" d="m 16.3347 66.7107 c 3.60596 0.592866 7.21192 1.13449 10.8179 1.47874 c 3.63544 0.347069 7.27087 0.49353 10.9063 0.289646 c 3.58448 -0.201027 7.16897 -0.742647 10.7535 -1.76839 V 76.5547 V 86.3987 V 96.2427 H 37.9865 H 27.1606 H 16.3347 c -0.471032 -3.28945 -1.08439 -6.5789 -1.53961 -9.86835 c -0.459245 -3.31853 -0.757541 -6.63706 -0.586379 -9.95558 c 0.166906 -3.23602 0.780216 -6.47203 2.12599 -9.70805 z" sodipodi:nodetypes="ccccc"/>
    <path id="path747" style="fill:none;stroke:#000000" inkscape:transform-center-x="1.3210413" inkscape:transform-center-y="-0.83976665" transform="matrix(0.26458333,0,0,0.26458333,-7.3390822,8.8605303)" d="m 427.01 188.575 l -17.9195 -5.38018 l -17.9195 -5.38018 l -17.9195 -5.38018 l -14.5909 11.7116 l -14.5909 11.7116 l -14.5909 11.7116 l -0.420583 -18.705 l -0.420583 -18.705 l -0.420583 -18.705 l -15.6472 -10.2577 l -15.6472 -10.2577 l -15.6472 -10.2577 l 17.6596 -6.18017 l 17.6596 -6.18017 l 17.6596 -6.18017 l 4.92041 -18.0512 l 4.92041 -18.0512 l 4.92041 -18.0512 l 11.3348 14.8855 l 11.3348 14.8855 l 11.3348 14.8855 l 18.6882 -0.89853 l 18.6882 -0.89853 l 18.6882 -0.89853 l -10.6543 15.3799 l -10.6543 15.3799 l -10.6543 15.3799 l 6.62952 17.4958 l 6.62952 17.4958 z"/>
    <path id="path1080" style="fill:none;fill-rule:evenodd;stroke:#000000;stroke-width:0.264583" d="m 90.2345 87.0549 c -0.373623 -0.122714 -0.499138 -0.35401 -0.476363 -0.612264 c 0.0216924 -0.24598 0.177915 -0.516414 0.382416 -0.740772 c 0.211071 -0.231565 0.473574 -0.414046 0.692675 -0.469891 c 0.589921 -0.15036 1.1262 -0.0389916 1.5787 0.234047 c 0.453902 0.273887 0.823501 0.71045 1.07838 1.2087 c 0.25469 0.49788 0.394824 1.05735 0.390051 1.57764 c -0.00849003 0.925089 -0.32623 1.73702 -0.841132 2.39894 c -0.523161 0.672541 -1.24986 1.19023 -2.06253 1.51442 c -0.80019 0.319216 -1.68373 0.450833 -2.53838 0.357964 c -1.25258 -0.136109 -2.34147 -0.652024 -3.21677 -1.41129 c -0.892005 -0.773759 -1.56219 -1.80025 -1.95771 -2.93506 c -0.388148 -1.11363 -0.5118 -2.33157 -0.321034 -3.51735 c 0.254155 -1.57979 0.965657 -2.94701 1.96997 -4.03714 c 1.02464 -1.11219 2.35406 -1.93598 3.81354 -2.40286 c 1.43051 -0.457614 2.98596 -0.572354 4.50184 -0.279719 c 1.90729 0.368195 3.55363 1.27421 4.85932 2.52387 c 1.33283 1.27563 2.31069 2.90935 2.84882 4.6946 c 0.527138 1.74881 0.6323 3.64304 0.235791 5.48854 c -0.480206 2.23503 -1.58019 4.16099 -3.07534 5.68263 c -1.52669 1.55375 -3.4654 2.68595 -5.577 3.29522 c -2.06784 0.596646 -4.30148 0.691803 -6.47633 0.190257 c -2.56297 -0.591044 -4.76885 -1.88469 -6.50671 -3.62543 c -1.77485 -1.77779 -3.06154 -4.02191 -3.74189 -6.46016 c -0.666132 -2.38729 -0.751008 -4.96069 -0.143712 -7.46472 c 0.701157 -2.89104 2.18828 -5.37706 4.17466 -7.3313 c 2.02892 -1.99609 4.57871 -3.43737 7.34384 -4.18875 c 2.707 -0.735593 5.62038 -0.809994 8.45348 -0.0964591 c 3.21922 0.810782 5.98553 2.49126 8.15626 4.72332 c 2.21742 2.28007 3.81336 5.13572 4.63574 8.22786 c 0.80503 3.02688 0.868816 6.28038 0.0487078 9.44244 C 107.544 96.5897 105.67 99.6364 103.192 102.024 C 100.661 104.463 97.4993 106.213 94.0801 107.107 C 90.7332 107.981 87.1395 108.034 83.6485 107.107 C 79.7727 106.078 76.4455 104.011 73.8416 101.288 C 71.1813 98.5051 69.2759 95.0374 68.3116 91.291 C 67.3677 87.624 67.3255 83.69 68.3594 79.8702"/>
    <path style="fill:none;stroke:#000000;stroke-width:0.264583px;stroke-linecap:butt;stroke-linejoin:miter;stroke-opacity:1" d="m 14.9373 124.035 l 6.87127 -5.93857 l 6.87127 -5.93857 l 6.87127 -5.93857 c 0 0 -1.31979 3.70492 1.97805 7.45341 c 1.33782 1.52063 3.43554 3.04844 6.68952 4.33899 c 2.07743 0.823923 4.62614 1.55114 7.74926 2.11806 c 4.01437 0.728701 6.38196 1.7447 7.60086 2.90394 c 2.24218 2.13243 0.597473 4.74958 -1.8337 6.95483 c -2.85614 2.59072 -6.79771 4.61296 -6.79771 4.61296 l -7.47622 -1.65873 l -7.47622 -1.65873 l -7.47622 -1.65873" id="path1115"/>
  </g>
</svg>